<?xml version="1.0" encoding="utf-8"?>
<!-- Generator: Adobe Illustrator 16.0.0, SVG Export Plug-In . SVG Version: 6.00 Build 0)  -->
<!DOCTYPE svg PUBLIC "-//W3C//DTD SVG 1.1//EN" "http://www.w3.org/Graphics/SVG/1.1/DTD/svg11.dtd">
<svg version="1.1" id="Layer_1" xmlns="http://www.w3.org/2000/svg" xmlns:xlink="http://www.w3.org/1999/xlink" x="0px" y="0px"
	 width="311.393px" height="312.659px" viewBox="0 0 311.393 312.659" enable-background="new 0 0 311.393 312.659"
	 xml:space="preserve">
<g>
	<g>
		<path fill="#55B7A4" d="M137.756,333.484c3.225,0,3.225-5,0-5S134.531,333.484,137.756,333.484L137.756,333.484z"/>
	</g>
</g>
<g>
	<g>
		
			<linearGradient id="SVGID_1_" gradientUnits="userSpaceOnUse" x1="66.1572" y1="234.0933" x2="-53.2743" y2="440.9547" gradientTransform="matrix(1 -0.0083 -0.0083 -1 151.1961 431.0349)">
			<stop  offset="0" style="stop-color:#3959A1"/>
			<stop  offset="0.1386" style="stop-color:#365CA4"/>
			<stop  offset="0.2791" style="stop-color:#2E69AD"/>
			<stop  offset="0.4207" style="stop-color:#217EBA"/>
			<stop  offset="0.5621" style="stop-color:#119ACC"/>
			<stop  offset="0.629" style="stop-color:#03A9D6"/>
			<stop  offset="1" style="stop-color:#5AB8A0"/>
		</linearGradient>
		<path fill="url(#SVGID_1_)" d="M247.026,166.306c0.081,9.928-6.396,18.037-14.47,18.098l-153.929,1.273
			c-8.073,0.07-14.687-7.931-14.771-17.862L62.643,20.616c-0.084-9.931,6.396-18.038,14.469-18.105l153.935-1.272
			c8.075-0.066,14.684,7.933,14.767,17.866L247.026,166.306z"/>
		<path fill="#FFFFFF" d="M185.907,75.09c0,0-0.25,0.06-0.694,0.159l10.072-13.384l-18.531-11.599
			c0.106-0.857,0.166-1.734,0.158-2.627c-0.069-6.372-3.305-12.033-8.33-15.77c2.908-4.963,8.949-12.435,19.295-13.163
			c1.66-0.119,2.915-1.592,2.796-3.286c-0.112-1.7-1.572-3.016-3.222-2.861c-13.242,0.934-20.697,10.262-24.204,16.374
			c-2.8-1.097-5.885-1.705-9.128-1.672c-3.24,0.03-6.31,0.693-9.084,1.842c-3.636-6.042-11.29-15.226-24.543-15.902
			c-1.675-0.127-3.091,1.218-3.164,2.922c-0.081,1.697,1.204,3.145,2.868,3.228c10.435,0.537,16.602,7.862,19.586,12.775
			c-4.956,3.827-8.081,9.562-8.014,15.943c0.011,1.079,0.114,2.132,0.298,3.163l-16.519,10.854l9.997,14.308
			c-0.651-0.132-1.026-0.215-1.026-0.215s-7.969,5.824-22.128,15.065c0.467,44.738,38.11,84.218,53.313,83.488
			c15.185-0.725,50.158-35.426,51.527-84.49C193.111,81.543,185.907,75.09,185.907,75.09z"/>
	</g>
	<g>
		<path fill="#3959A1" d="M13.121,259.346l-10.039,0.002l10.186-48.732l19.813-0.009c3.521,0,6.309,0.413,8.36,1.246
			c2.049,0.83,3.676,2.208,4.871,4.123c1.196,1.915,1.798,4.203,1.798,6.862c0,2.458-0.475,4.851-1.426,7.179
			c-0.953,2.326-2.122,4.191-3.508,5.583c-1.383,1.396-2.873,2.458-4.466,3.177c-1.599,0.721-3.748,1.275-6.449,1.647
			c-1.576,0.223-4.521,0.337-8.844,0.337h-6.416L13.121,259.346z M18.663,232.686h3.091c5.299-0.007,8.831-0.338,10.604-1.003
			c1.772-0.666,3.167-1.73,4.188-3.193c1.018-1.464,1.53-3.07,1.53-4.819c0-1.172-0.263-2.138-0.784-2.888
			c-0.523-0.757-1.253-1.306-2.194-1.646c-0.941-0.346-3.044-0.516-6.3-0.516h-7.181L18.663,232.686z"/>
		<path fill="#3959A1" d="M82.822,244.626l-23.934,0.009c-0.022,0.376-0.032,0.664-0.032,0.863c0,2.348,0.67,4.246,2.014,5.683
			c1.341,1.442,2.975,2.162,4.901,2.162c3.169,0,5.64-1.644,7.411-4.925l8.544,1.425c-1.662,3.44-3.881,6.019-6.661,7.733
			c-2.784,1.723-5.899,2.581-9.358,2.581c-4.742,0-8.597-1.498-11.57-4.504c-2.972-3.001-4.457-6.969-4.459-11.913
			c-0.003-4.832,1.337-9.128,4.016-12.896c3.654-5.101,8.875-7.646,15.654-7.65c4.323-0.004,7.755,1.333,10.31,3.999
			c2.546,2.668,3.824,6.407,3.824,11.218C83.483,240.714,83.265,242.786,82.822,244.626z M74.775,238.815
			c0.021-0.426,0.031-0.744,0.031-0.965c0-2.615-0.588-4.574-1.763-5.885c-1.176-1.309-2.751-1.959-4.723-1.959
			c-1.974,0-3.739,0.744-5.301,2.231c-1.56,1.48-2.62,3.677-3.172,6.58L74.775,238.815z"/>
		<path fill="#3959A1" d="M85.082,249.446l9.24-1.464c0.823,1.946,1.843,3.326,3.06,4.134c1.22,0.81,2.882,1.215,4.988,1.215
			c2.169,0,3.911-0.492,5.217-1.466c0.911-0.663,1.363-1.476,1.363-2.429c0-0.639-0.235-1.221-0.698-1.727
			c-0.488-0.484-1.807-1.086-3.959-1.793c-5.76-1.899-9.329-3.404-10.703-4.516c-2.149-1.727-3.227-3.987-3.227-6.779
			c-0.003-2.792,1.038-5.197,3.124-7.214c2.9-2.813,7.21-4.223,12.927-4.223c4.545-0.007,7.979,0.829,10.306,2.486
			c2.33,1.66,3.803,3.909,4.424,6.741l-8.81,1.534c-0.466-1.284-1.22-2.25-2.261-2.889c-1.416-0.864-3.123-1.296-5.117-1.296
			c-1.997,0-3.431,0.338-4.307,1s-1.31,1.425-1.31,2.293c0,0.886,0.44,1.619,1.328,2.193c0.555,0.352,2.338,0.974,5.353,1.856
			c4.653,1.353,7.767,2.681,9.341,3.987c2.217,1.836,3.326,4.055,3.326,6.646c0.002,3.346-1.402,6.249-4.217,8.709
			s-6.782,3.695-11.899,3.695c-5.098,0.003-9.036-0.936-11.817-2.807C87.971,255.468,86.082,252.835,85.082,249.446z"/>
		<path fill="#3959A1" d="M126.561,231.08l1.462-7.074h4.651l1.161-5.653l10.936-6.587L142.213,224h5.818l-1.46,7.076h-5.851
			l-3.084,14.798c-0.559,2.68-0.83,4.207-0.83,4.587c0,0.729,0.23,1.304,0.697,1.712c0.464,0.408,1.305,0.612,2.521,0.612
			c0.424,0,1.476-0.078,3.161-0.234l-1.495,7.08c-1.637,0.333-3.323,0.501-5.05,0.501c-3.367,0-5.817-0.648-7.348-1.941
			S127,255.096,127,252.792c0-1.088,0.407-3.593,1.226-7.517l2.952-14.195H126.561z"/>
		<path fill="#3959A1" d="M193.252,259.277l-10.139,0.004l-1.111-35.63l-17.736,35.639l-10.338,0.003l-1.846-48.729l9.808-0.003
			l0.442,34.105l16.709-34.114l10.869-0.003l1.143,33.738l16.045-33.744l9.706-0.006L193.252,259.277z"/>
		<path fill="#3959A1" d="M223.325,233.969l-9.308-0.791c1.064-3.146,2.918-5.607,5.566-7.381c2.646-1.773,6.152-2.659,10.521-2.663
			c4.541,0,7.898,0.912,10.073,2.736c2.172,1.827,3.261,4.062,3.261,6.698c0,1.064-0.096,2.192-0.28,3.393
			c-0.189,1.196-0.848,4.34-1.975,9.44c-0.93,4.211-1.393,7.157-1.393,8.841c0.001,1.508,0.268,3.179,0.798,5.021l-9.275,0.003
			c-0.374-1.284-0.606-2.615-0.696-3.988c-1.395,1.552-3.005,2.742-4.821,3.572c-1.815,0.832-3.642,1.245-5.481,1.245
			c-2.926,0.007-5.341-0.95-7.249-2.87c-1.905-1.915-2.859-4.378-2.859-7.396c-0.002-3.363,1.044-6.059,3.138-8.077
			c2.091-2.018,5.831-3.239,11.215-3.659c4.543-0.381,7.578-0.836,9.108-1.369c0.399-1.326,0.597-2.391,0.597-3.19
			c0-1.021-0.412-1.872-1.232-2.557c-0.816-0.69-2.037-1.031-3.652-1.031c-1.708,0-3.053,0.354-4.04,1.049
			C224.352,231.695,223.681,232.686,223.325,233.969z M232.403,242.809c-0.578,0.155-1.342,0.299-2.295,0.435
			c-4.786,0.577-7.912,1.422-9.373,2.529c-1.04,0.799-1.56,1.874-1.56,3.227c0.003,1.108,0.401,2.047,1.199,2.806
			c0.799,0.767,1.849,1.147,3.157,1.147c1.441,0,2.798-0.352,4.07-1.047c1.272-0.7,2.229-1.599,2.857-2.698
			c0.63-1.093,1.191-2.806,1.677-5.135L232.403,242.809z"/>
		<path fill="#3959A1" d="M254.565,223.958l8.907-0.006l-1.424,6.845c3.322-5.121,6.922-7.678,10.798-7.68
			c1.374,0,2.85,0.343,4.423,1.029l-3.654,7.812c-0.863-0.311-1.783-0.467-2.761-0.467c-1.638,0-3.305,0.622-5.001,1.862
			c-1.695,1.246-3.021,2.903-3.972,4.974c-0.949,2.071-1.891,5.358-2.822,9.856l-2.324,11.067l-9.539,0.009L254.565,223.958z"/>
		<path fill="#3959A1" d="M308.592,244.542l-23.936,0.013c-0.021,0.378-0.031,0.662-0.031,0.861c0,2.35,0.67,4.244,2.014,5.687
			c1.34,1.44,2.975,2.158,4.902,2.158c3.167,0,5.641-1.643,7.411-4.924l8.546,1.425c-1.664,3.441-3.883,6.016-6.665,7.73
			c-2.782,1.719-5.896,2.581-9.356,2.584c-4.742,0-8.6-1.501-11.57-4.502c-2.972-3.002-4.459-6.97-4.461-11.914
			c-0.001-4.83,1.337-9.129,4.019-12.897c3.655-5.1,8.872-7.648,15.653-7.648c4.322,0,7.756,1.331,10.308,3.997
			c2.552,2.669,3.825,6.408,3.826,11.217C309.255,240.633,309.034,242.703,308.592,244.542z M300.545,238.726
			c0.021-0.416,0.031-0.738,0.031-0.962c0-2.612-0.588-4.577-1.762-5.884c-1.177-1.304-2.747-1.96-4.722-1.96
			c-1.973,0-3.739,0.745-5.3,2.231c-1.562,1.484-2.621,3.678-3.175,6.583L300.545,238.726z"/>
	</g>
	<g>
		<path fill="#3959A1" d="M136.342,298.037l-11.581,0.396l-3.286,6.582l-6.18,0.21l15.521-29.789l6.677-0.228l5.751,29.058
			l-5.7,0.197L136.342,298.037z M135.438,293.199l-2.098-11.705l-6.65,12.007L135.438,293.199z"/>
		<path fill="#3959A1" d="M150.387,282.827l5.424-0.192l-0.383,2.191c1.121-0.997,2.181-1.718,3.177-2.164
			c0.995-0.448,2.073-0.691,3.229-0.732c2.217-0.077,4.027,0.627,5.431,2.107c1.399,1.484,2.153,3.739,2.256,6.771
			c0.129,3.813-0.919,7.074-3.155,9.78c-1.919,2.316-4.236,3.522-6.96,3.612c-2.803,0.098-4.964-0.964-6.476-3.189l-1.916,11.062
			l-5.722,0.196L150.387,282.827z M154.254,294.846c0.057,1.647,0.505,2.913,1.338,3.795c0.836,0.885,1.796,1.305,2.888,1.268
			c0.943-0.033,1.842-0.405,2.697-1.121c0.85-0.715,1.539-1.874,2.063-3.481c0.524-1.61,0.765-3.091,0.715-4.448
			c-0.054-1.581-0.474-2.782-1.262-3.599c-0.785-0.818-1.764-1.201-2.932-1.161c-1.09,0.036-2.071,0.458-2.941,1.267
			c-0.869,0.807-1.523,1.975-1.964,3.499C154.415,292.389,154.215,293.717,154.254,294.846z"/>
		<path fill="#3959A1" d="M175.322,281.967l5.421-0.186l-0.382,2.186c1.121-0.995,2.182-1.716,3.18-2.165
			c0.993-0.449,2.069-0.688,3.227-0.729c2.219-0.077,4.029,0.627,5.428,2.107c1.4,1.484,2.156,3.736,2.26,6.766
			c0.131,3.815-0.922,7.076-3.156,9.789c-1.915,2.313-4.237,3.516-6.961,3.606c-2.804,0.097-4.962-0.962-6.476-3.185l-1.914,11.06
			l-5.722,0.196L175.322,281.967z M179.189,293.987c0.057,1.648,0.503,2.916,1.336,3.798c0.835,0.883,1.797,1.306,2.886,1.268
			c0.944-0.033,1.845-0.407,2.696-1.121c0.852-0.713,1.544-1.876,2.065-3.481c0.522-1.612,0.763-3.091,0.717-4.448
			c-0.053-1.58-0.474-2.782-1.263-3.595c-0.785-0.82-1.765-1.209-2.935-1.17c-1.089,0.041-2.067,0.46-2.938,1.27
			c-0.87,0.809-1.527,1.974-1.964,3.501C179.351,291.533,179.15,292.862,179.189,293.987z"/>
	</g>
</g>
</svg>
