<?xml version="1.0" encoding="utf-8"?>
<!-- Generator: Adobe Illustrator 16.0.3, SVG Export Plug-In . SVG Version: 6.00 Build 0)  -->
<!DOCTYPE svg PUBLIC "-//W3C//DTD SVG 1.1//EN" "http://www.w3.org/Graphics/SVG/1.1/DTD/svg11.dtd">
<svg version="1.1" id="Capa_1" xmlns="http://www.w3.org/2000/svg" xmlns:xlink="http://www.w3.org/1999/xlink" x="0px" y="0px"
	 width="277px" height="277px" viewBox="142.5 194 277 277" enable-background="new 142.5 194 277 277" xml:space="preserve">
<title>background</title>
<g id="canvasGrid" display="none">
	<rect x="1" y="1" display="inline" fill="none" width="800" height="600"/>
</g>
<title>Layer 1</title>
<linearGradient id="svg_1_1_" gradientUnits="userSpaceOnUse" x1="152.3594" y1="429.6016" x2="153.3594" y2="429.6016" gradientTransform="matrix(277 0 0 -277 -42061 119332)">
	<stop  offset="0" style="stop-color:#04BEFE;stop-opacity:0.9961"/>
	<stop  offset="1" style="stop-color:#4481EB;stop-opacity:0.9961"/>
</linearGradient>
<ellipse id="svg_1" fill="url(#svg_1_1_)" cx="281" cy="332.5" rx="138.5" ry="138.5"/>
</svg>
