<?xml version="1.0" encoding="utf-8"?>
<!-- Generator: Adobe Illustrator 16.0.0, SVG Export Plug-In . SVG Version: 6.00 Build 0)  -->
<!DOCTYPE svg PUBLIC "-//W3C//DTD SVG 1.1//EN" "http://www.w3.org/Graphics/SVG/1.1/DTD/svg11.dtd">
<svg version="1.1" id="Layer_1" xmlns="http://www.w3.org/2000/svg" xmlns:xlink="http://www.w3.org/1999/xlink" x="0px" y="0px"
	 width="999px" height="797.25px" viewBox="0 0 311.393 787.27" enable-background="new 0 0 311.393 787.27"
	 xml:space="preserve">
<g>
	<g>
		<path fill="#E6E6E6" stroke="#BCBEC0" stroke-miterlimit="10" d="M47.446,296.631c-0.15-0.014-0.289-0.009-0.439-0.019
			l8.605,18.931C55.397,312.244,48.776,299.546,47.446,296.631z"/>
		<path fill="#E6E6E6" stroke="#BCBEC0" stroke-miterlimit="10" d="M99.456,169.208c-1.6-4.459-7.686-1.929-10.268-0.419
			c-3.332,1.949-5.154,5.53-8.07,8.048c-2.951,2.552-6.346,3.989-8.943,7.192c-5.199,6.415-8.703,14.842-13.105,22.051
			c-8.039,13.164-12.48,31.377-13.25,46.665c-0.402,7.984,2.227,15.138,2.865,22.484c0.576,6.652-1.689,13.837-1.713,21.302
			l0.035,0.082c0.15,0.01,0.289,0.005,0.439,0.019c1.33,2.915,7.951,15.612,8.166,18.913l-8.605-18.931
			c-4.619-0.307-8.01,1.171-12.105,2.24c-2.822,0.736-10.797,0.578-12.586,2.981c-3.762,5.042,11.154,32.906,14.143,36.9
			c4.291,5.734,11.158,15.995,16.881,19.441c9.98,6.009,15.633-3.951,21.287-10.947c2.779-3.439,7.473-8.355,8.67-12.675
			c1.123-4.056-0.029-10.159-0.029-14.401c0-14.02,0.816-27.785,2.912-41.464c2.996-19.575,7.729-38.863,8.611-59.359
			c0.555-12.861,1.697-25.366,2.305-38.038C97.206,178.968,99.856,170.326,99.456,169.208z"/>
	</g>
	<path fill="#E1BB9B" d="M205.216,87.393c0,13.445-5.934,25.083-11.139,35.529c-8.963,17.984-21.475,30.727-38.984,30.727
		c-16.152,0-27.516-12.74-36.682-28.422c-6.543-11.194-13.826-38.532-13.826-53.773c0-36.592,22.631-36.873,50.314-36.873
		C182.581,34.581,205.216,50.801,205.216,87.393z"/>
	<path fill="#262262" d="M173.722,6.062c-3.254-0.339-6.732,0.651-6.088,4.551c1.83-0.069,6.268,2.038,7.641,1.229
		c2.75-1.616-0.029-4.233-1.553-5.396"/>
	<g>
		<path fill="#A5A9CC" d="M168.411,9.34c-5.496-0.92-11.756,0.253-16.967,1.052c-5.904,0.905-12.088,0.651-17.658,2.391
			c-10.5,3.279-20,12.467-24.506,22.267c-0.984,2.139-2.293,5.122-2.475,7.511c-0.303,3.916,1.35,4.101,5.461,3.542
			c2.996-0.408,5.428-2.156,8.459-2.773c3.422-0.697,7.156-1.086,10.65-1.464c15.457-1.667,29.342-1.199,44.564,2.027
			c3.752,0.794,7.584,0.941,11.014,2.04c-0.791-7.756-3.773-13.867-6.703-21.143C178.026,19.267,173.661,12.793,168.411,9.34z"/>
		<path fill="#3C5899" d="M205.216,51.865c0-6.648-1.529-10.848-4.715-16.431c-4.682-8.206-11.371-17.903-20.23-22.363
			c-3.414-1.718-7.234-2.388-10.775-3.457h0.385c-0.48-0.119-0.977-0.191-1.469-0.274c5.25,3.453,9.615,9.927,11.84,15.45
			c2.93,7.276,5.912,13.387,6.703,21.143c2.479,0.793,4.748,2.08,6.625,4.481c4.074,5.224,7.162,11.815,9.014,17.917
			C206.448,66.744,205.216,55.794,205.216,51.865z"/>
	</g>
	<g>
		<path fill="none" stroke="#FFFFFF" stroke-width="2" stroke-miterlimit="10" d="M146.067,17.144
			c-12.746,0.038-14.344,15.602-1.152,16.287c11.563,0.6,13.477-16.279,0.383-16.612"/>
		<path fill="none" stroke="#FFFFFF" stroke-width="2" stroke-miterlimit="10" d="M139.153,18.773
			c4.469,3.032,9.693,8.427,10.754,13.029"/>
	</g>
	<path fill="#414042" d="M86.532,70.656c16.279,0,28.193-7.454,43.137-10.627c7.27-1.544,13.875-2.894,21.148-4.729
		c4.674-1.18,18.465-0.86,20.385-5.97c2.678-7.128-38.32-8.946-44.668-7.019c-11.682,3.547-29.91,11.436-36.598,20.422
		c-1.807,2.429-4.086,5.903-2.393,8.336"/>
	<g>
		<path d="M191.489,69.579c0,0-0.058-0.102-0.166-0.292c-0.058-0.091-0.113-0.221-0.206-0.342c-0.101-0.111-0.216-0.238-0.345-0.38
			c-0.277-0.265-0.647-0.578-1.123-0.857c-0.465-0.293-1.032-0.564-1.666-0.819c-0.633-0.259-1.344-0.485-2.1-0.704
			c-0.764-0.2-1.566-0.417-2.413-0.586c-0.843-0.181-1.723-0.332-2.619-0.469c-0.449-0.063-0.902-0.125-1.357-0.189l-0.342-0.042
			l-0.321-0.032l-0.697-0.06c-0.932-0.071-1.862-0.142-2.778-0.212c-0.912-0.032-1.795-0.036-2.651-0.093
			c-0.857-0.073-1.688-0.144-2.474-0.21c-0.794-0.067-1.544-0.148-2.236-0.24c-1.387-0.18-2.551-0.322-3.363-0.485
			c-0.814-0.148-1.28-0.269-1.28-0.269v-0.2c0,0,0.466-0.113,1.284-0.249c0.409-0.07,0.906-0.142,1.477-0.214
			c0.571-0.066,1.215-0.151,1.92-0.183c1.414-0.074,3.048-0.18,4.837-0.027c0.887,0.077,1.81,0.167,2.725,0.311
			c0.904,0.16,1.824,0.322,2.743,0.484l0.69,0.115l0.369,0.067l0.346,0.071c0.46,0.102,0.917,0.204,1.371,0.305
			c0.905,0.214,1.792,0.44,2.643,0.696c1.705,0.491,3.262,1.096,4.528,1.768c0.633,0.334,1.197,0.679,1.66,1.041
			c0.473,0.347,0.831,0.72,1.101,1.054c0.123,0.178,0.233,0.337,0.33,0.476c0.081,0.141,0.118,0.269,0.165,0.369
			c0.085,0.202,0.13,0.31,0.13,0.31L191.489,69.579z"/>
	</g>
	<g>
		<path d="M134.259,71.652c0,0-0.384,0.042-1.056,0.116c-0.337,0.035-0.744,0.077-1.213,0.125c-0.467,0.052-1.002,0.079-1.562,0.201
			c-0.561,0.102-1.169,0.213-1.812,0.33c-0.643,0.094-1.309,0.286-1.996,0.463c-0.683,0.2-1.41,0.314-2.102,0.6
			c-0.697,0.252-1.405,0.508-2.114,0.764c-0.684,0.315-1.36,0.645-2.02,0.973c-0.672,0.303-1.277,0.713-1.897,1.037
			c-0.615,0.334-1.246,0.589-1.806,0.913c-0.565,0.311-1.112,0.591-1.628,0.838c-0.521,0.238-0.979,0.494-1.392,0.714
			c-0.416,0.215-0.786,0.398-1.098,0.541c-0.622,0.289-1.004,0.429-1.004,0.429l-0.125-0.156c0,0,0.234-0.322,0.692-0.842
			c0.228-0.262,0.513-0.57,0.848-0.918c0.339-0.344,0.715-0.743,1.188-1.097c0.46-0.375,0.97-0.767,1.522-1.167
			c0.529-0.435,1.186-0.743,1.837-1.102c0.668-0.33,1.35-0.686,2.107-0.906c0.738-0.252,1.488-0.508,2.238-0.765
			c0.766-0.195,1.53-0.39,2.284-0.583c0.743-0.224,1.513-0.273,2.234-0.41c0.729-0.108,1.422-0.253,2.104-0.263
			c0.672-0.037,1.308-0.073,1.895-0.105c0.585-0.051,1.113-0.013,1.584-0.006c0.471,0.014,0.881,0.026,1.219,0.037
			c0.676,0.024,1.062,0.038,1.062,0.038L134.259,71.652z"/>
	</g>
	<g>
		<ellipse cx="172.279" cy="84.371" rx="6.626" ry="6.77"/>
		<g>
			<path d="M189.388,74.994c0,0-0.354,0.103-0.974,0.251c-0.611,0.167-1.524,0.29-2.555,0.564c-0.515,0.138-1.066,0.287-1.65,0.414
				c-0.578,0.118-1.202,0.321-1.851,0.47c-1.284,0.324-2.684,0.665-4.093,0.958c-0.696,0.138-1.392,0.276-2.076,0.413
				c-0.675,0.138-1.338,0.274-1.98,0.406c-0.631,0.164-1.256,0.284-1.832,0.443c-0.568,0.173-1.13,0.294-1.617,0.473
				c-0.498,0.163-0.959,0.308-1.347,0.482c-0.393,0.167-0.763,0.283-1.024,0.443c-0.553,0.284-0.896,0.443-0.896,0.443
				s0.223-0.28,0.661-0.765c0.21-0.257,0.515-0.5,0.871-0.782c0.348-0.301,0.771-0.588,1.255-0.865
				c0.472-0.311,1.014-0.567,1.594-0.835c0.579-0.268,1.202-0.511,1.857-0.733c0.656-0.204,1.33-0.442,2.035-0.604
				c0.711-0.194,1.387-0.319,2.106-0.479c0.701-0.135,1.402-0.271,2.092-0.403c0.688-0.133,1.396-0.214,2.063-0.32
				c1.325-0.219,2.653-0.264,3.745-0.298c0.552-0.043,1.043,0.021,1.482,0.059c0.439,0.034,0.823,0.084,1.139,0.121
				C189.025,74.93,189.388,74.994,189.388,74.994z"/>
		</g>
		<g>
			<path d="M133.966,81.922c0,0-0.282,0.098-0.778,0.238c-0.247,0.066-0.548,0.153-0.895,0.229
				c-0.351,0.069-0.729,0.193-1.135,0.311c-0.406,0.12-0.842,0.249-1.302,0.356c-0.46,0.122-0.945,0.311-1.451,0.439
				c-1.015,0.261-2.063,0.667-3.138,0.961c-0.529,0.18-1.055,0.369-1.581,0.532c-0.526,0.164-1.043,0.328-1.533,0.515
				c-0.489,0.188-0.986,0.323-1.443,0.484c-0.446,0.181-0.882,0.331-1.287,0.467c-0.82,0.259-1.471,0.544-1.962,0.699
				c-0.485,0.164-0.778,0.244-0.778,0.244s0.196-0.219,0.565-0.581c0.377-0.348,0.9-0.897,1.637-1.377
				c0.713-0.526,1.588-1.082,2.582-1.559c0.493-0.247,0.998-0.52,1.544-0.711c0.538-0.215,1.091-0.417,1.645-0.616
				c0.567-0.158,1.134-0.318,1.696-0.456c0.557-0.163,1.128-0.229,1.674-0.317c1.08-0.191,2.137-0.237,3.032-0.218
				c0.895-0.035,1.6,0.136,2.111,0.204C133.676,81.853,133.966,81.922,133.966,81.922z"/>
		</g>
		<ellipse transform="matrix(0.9362 -0.3514 0.3514 0.9362 -24.1037 48.6134)" cx="121.869" cy="90.708" rx="6.049" ry="5.905"/>
	</g>
	<g>
		<path fill="#BE1E2D" d="M169.399,102.375c0,0,0.201-0.045,0.579-0.129c0.369-0.096,0.95-0.155,1.615-0.389
			c0.332-0.103,0.699-0.217,1.1-0.341c0.396-0.152,0.824-0.317,1.281-0.493c0.906-0.368,1.908-0.829,3.003-1.348
			c1.092-0.52,2.271-1.127,3.56-1.715c1.3-0.601,2.697-1.18,4.058-1.754c0.693-0.282,1.351-0.62,2.031-0.941
			c0.637-0.371,1.318-0.698,1.916-1.113c0.642-0.372,1.182-0.855,1.753-1.306c0.492-0.527,1.051-0.997,1.447-1.608
			c0.208-0.288,0.467-0.571,0.644-0.855l0.655-1.03c0.424-0.687,0.909-1.364,1.271-2.033c0.384-0.671,0.775-1.332,1.173-1.981
			c0.36-0.678,0.718-1.349,1.068-2.008c0.372-0.651,0.655-1.328,0.977-1.973c0.307-0.65,0.645-1.275,0.907-1.908
			c0.498-1.275,1.083-2.452,1.458-3.593c0.412-1.131,0.809-2.169,1.068-3.117c0.276-0.943,0.576-1.763,0.713-2.459
			c0.334-1.383,0.563-2.186,0.563-2.186s0.034,0.816,0.028,2.269c0.023,0.73-0.068,1.603-0.18,2.609
			c-0.062,0.501-0.093,1.046-0.19,1.605c-0.11,0.558-0.226,1.144-0.347,1.756c-0.206,1.24-0.619,2.527-1.019,3.908
			c-0.466,1.352-0.933,2.802-1.592,4.221c-0.322,0.714-0.65,1.439-0.982,2.174c-0.37,0.725-0.756,1.456-1.154,2.187
			c-0.388,0.753-0.816,1.416-1.245,2.112l-0.645,1.037c-0.252,0.409-0.537,0.74-0.81,1.111c-0.523,0.746-1.225,1.341-1.864,1.974
			c-0.709,0.55-1.402,1.122-2.162,1.546c-1.48,0.934-3.049,1.523-4.522,2.056c-1.485,0.545-2.887,0.928-4.189,1.372
			c-1.313,0.46-2.576,0.883-3.769,1.242c-1.182,0.377-2.303,0.649-3.302,0.845c-0.505,0.087-0.972,0.177-1.406,0.239
			c-0.446,0.032-0.855,0.062-1.225,0.088c-0.73,0.088-1.287-0.031-1.675-0.028C169.604,102.39,169.399,102.375,169.399,102.375z"/>
	</g>
	<g>
		<path fill="#BE1E2D" d="M193.618,115.914c0,0-0.127-0.442-0.349-1.215c-0.104-0.376-0.254-0.839-0.381-1.383
			c-0.132-0.547-0.288-1.177-0.327-1.919c-0.079-0.734-0.006-1.594,0.237-2.488c0.262-0.801,0.513-1.523,0.811-2.327
			c0.29-0.79,0.602-1.601,0.938-2.417c0.169-0.407,0.339-0.818,0.511-1.23l0.267-0.615l0.033-0.077l0.082-0.17l0.077-0.149
			l0.152-0.299c0.218-0.398,0.408-0.784,0.649-1.189c0.26-0.416,0.538-0.818,0.807-1.219c0.263-0.418,0.556-0.745,0.838-1.104
			c0.286-0.346,0.551-0.709,0.852-1.018c0.294-0.316,0.583-0.627,0.866-0.932l0.214-0.224l0.053-0.056
			c0.07-0.078,0.051-0.051,0.081-0.082l0.109-0.102c0.146-0.134,0.29-0.267,0.433-0.398c0.305-0.261,0.622-0.529,0.919-0.763
			c0.289-0.22,0.569-0.432,0.838-0.636c0.519-0.405,0.994-0.777,1.415-1.106c0.374-0.353,0.76-0.643,0.979-0.937
			c0.116-0.144,0.248-0.27,0.331-0.39c0.073-0.129,0.135-0.238,0.186-0.327c0.11-0.189,0.169-0.291,0.169-0.291s0,0.115-0.001,0.331
			c0,0.223-0.005,0.569-0.159,0.96c-0.106,0.425-0.338,0.871-0.621,1.387c-0.152,0.245-0.314,0.505-0.486,0.78
			c-0.179,0.263-0.383,0.523-0.588,0.806c-0.401,0.522-0.835,1.089-1.294,1.688c-0.115,0.155-0.231,0.313-0.35,0.472l-0.089,0.12
			c-0.003,0.006-0.057,0.07-0.019,0.03l-0.041,0.061l-0.163,0.247c-0.224,0.326-0.452,0.659-0.685,0.998
			c-0.449,0.673-0.92,1.386-1.348,2.072c-0.204,0.343-0.402,0.691-0.621,1.03c-0.21,0.364-0.408,0.787-0.615,1.178l-0.266,0.5
			l-0.279,0.61c-0.191,0.403-0.383,0.805-0.572,1.203c-0.382,0.796-0.775,1.571-1.169,2.316c-0.383,0.732-0.804,1.49-1.152,2.102
			c-0.269,0.556-0.516,1.133-0.616,1.746c-0.233,1.212-0.282,2.377-0.411,3.181C193.75,115.469,193.618,115.914,193.618,115.914z"/>
	</g>
	<path fill="#E1BB9B" d="M203.392,70.111c2.469-0.58,2.982-1.274,4.047,1.426c0.734,1.858,0.631,4.129,1.123,6.078
		c0.953,3.772,1.543,7.434-0.77,11.012c-3.574,5.53-2.828-2.862-3.232-5.554c-0.316-2.104-0.557-10.993-1.744-11.81"/>
	<g>
		<path fill="#BE1E2D" d="M120.716,113.609c0,0-0.286-0.015-0.757-0.094c-0.474-0.087-1.126-0.185-1.889-0.484
			c-0.381-0.142-0.792-0.31-1.222-0.503c-0.419-0.201-0.834-0.441-1.266-0.699c-0.878-0.491-1.696-1.185-2.514-1.874
			c-0.751-0.774-1.519-1.521-2.066-2.397c-0.285-0.424-0.554-0.833-0.777-1.244c-0.203-0.433-0.379-0.846-0.528-1.229
			c-0.151-0.382-0.274-0.734-0.323-1.083c-0.072-0.333-0.104-0.632-0.133-0.872c-0.056-0.48-0.049-0.755-0.049-0.755
			s0.238,0.181,0.587,0.498c0.173,0.16,0.387,0.345,0.597,0.567c0.2,0.226,0.493,0.443,0.776,0.692
			c0.283,0.25,0.577,0.521,0.871,0.813c0.315,0.28,0.666,0.563,0.994,0.874c0.171,0.151,0.331,0.314,0.497,0.476
			c0.177,0.155,0.355,0.311,0.536,0.469c0.363,0.313,0.703,0.656,1.056,0.989c0.363,0.325,0.729,0.647,1.069,0.988
			c0.339,0.344,0.691,0.662,1.024,0.984c0.336,0.317,0.645,0.657,0.943,0.961c0.301,0.294,0.58,0.588,0.837,0.871
			c0.492,0.585,0.983,1.066,1.274,1.442C120.56,113.369,120.716,113.609,120.716,113.609z"/>
	</g>
	<path fill="#E1BB9B" d="M144.146,148.657c-7.703,5.818-21.67,8.628-24.592,18.445c-5.24,17.59,7.521,30.168,23.148,36.778
		c6.947,2.939,15.932,3.843,22.213,1.697c8.9-3.041,13.201-5.861,18.129-13.527c5.311-8.265,12.645-14.557,11.742-25.283
		c-3.953-0.175-9.35-4.518-11.357-7.826c-2.383-3.926-3.568-10.218-7.02-13.377c-3.432-3.14-11.287-0.517-15.449,0.693
		c-4.537,1.319-11.73,4.893-16.43,2.784"/>
	<path fill="#E6E7E8" d="M124.173,160.95c-5.029,1.711-8.074,5.718-13.742,6.613c-2.842,0.449-5.344,0.16-7.287,2.316
		c-1.686,1.872-2.082,5.921-2.699,8.354c-1.586,6.27-1.234,13.821-1.238,20.356c0,8.311-0.396,16.218-1.143,24.284
		c-0.902,9.756,2.361,15.353,12.674,17.486c8.596,1.777,17.568-0.401,26.127,1.526c6.678,1.503,13.75,3.434,20.754,2.334
		c3.916-0.614,6.889-1.708,11.07-1.486c5.766,0.307,11.477,2.238,17.256,2.341c4.047,0.072,8.764-1.744,11.301-4.983
		c6.943-8.865,6.295-25.165,8.355-35.799c2.082-10.734,2.037-22.695,1.479-33.674c-4.244-1.598-10.27-4.118-14.855-3.457
		c-1.279,4.848-3.643,9.706-6.691,14.06c-2.736,3.909-4.916,9.447-9.125,11.886c-9.273,5.375-25.949,5.556-35.74,2.046
		c-5.266-1.888-12.305-5.888-15.631-10.787c-3.883-5.719-2.398-15.856-2.398-22.65"/>
	<g>
		<path fill="#3C5899" d="M99.399,166.902c-6.494,3.016-5.348,17.853-5.732,24.227c-0.527,8.749-2.49,18.009-2.939,27.048
			c-0.24,4.799-0.291,9.138-0.547,13.827c-0.098,1.815,0.756,5.294-0.002,6.912c-1.027,2.191-2.568,2.455-4.434,4.208
			c-6.254,5.878-6.629,16.801-7.086,25.177c-1.164,21.234,1.611,42.372-0.578,63.502c-2.039,19.703,0.721,38.732,3.586,57.358
			c2.408,15.639-11.938,30.67-10.498,46.793"/>
		<path fill="#3C5899" d="M98.823,166.902c12.732,0.083,6.164,9.732,5.186,18.436c-1.029,9.128-0.67,18.916-0.576,28.359
			c0.105,10.762,0.389,17.723,12.1,18.308c9.74,0.486,19.627,0,29.381,0c9.313,0,20.063-1.048,28.805,1.282
			c9.959,2.655,17.326,4.755,20.039-8.324c1.807-8.704,2.549-17.334,4.289-26.246c1.529-7.832,2.479-18.006,5.762-25.35
			c3.111-6.96,14.469-3.583,16.723,0.014c2.01,3.208-3.781,7.506-4.895,11.38c-1.266,4.413-1.686,8.638-2.148,13.265
			c-0.895,8.966-1.744,18.524-1.742,27.641c0.004,12.094,4.5,21.438,6.209,32.52c3.012,19.528,7.939,37.723,8.77,57.485
			c0.881,20.901,2.84,42.82,5.186,63.82c0.502,4.489,2.277,9.824,1.729,13.94c0-1.736,0-5.28,0-5.982
			c0,11.297,1.02,23.139-0.166,34.371c-1.049,9.951-5.775,19.207-6.748,29.113c-0.92,9.396,0,19.359,0,28.807
			c0.004,20.514,3.91,38.754,6.941,58.766c5.635,37.203-3.77,73.389-0.053,110.617c1.83,18.336,11.012,99.789-10.348,103.701
			c-7.117,1.301-16.988-4.742-25.348-4.605c-9.078,0.146-16.91,1.68-25.352,3.395c-10.217,2.072-16.607,5.928-20.48-4.805
			c-2.705-7.486-0.012-19.979,1.146-27.145c2.76-17.059,7.584-33.422,5.766-51.209c-1.898-18.584-3.713-36.908-3.713-56.205
			c0-20.135,2.334-40.514,0.256-60.168c-1.994-18.854-5.922-36.631-8.578-55c-0.537-3.721-0.979-11.109-0.896-12.896
			c0,37.578-8.016,74.734-10.367,111.934c-2.439,38.637-4.611,75.5-4.611,114.074c0,14.203,3.336,27.877,2.104,41.283
			c-16.492,13.424-32.172,1.75-47.965-6.971c-5.43-3-54.512-25.273-25.781-31.055c-0.773-9.516,4.047-17.748,2.277-27.482
			c-1.594-8.76-5.084-16.852-5.559-26.475c-0.994-20.072,5.471-36.592,8.033-55.309c5.291-38.674-7.973-77.701-1.99-117.531
			c1.93-12.854-1.287-43.771,7.811-53.004"/>
	</g>
	<path fill="#414042" d="M158.165,751.678c-4.293,5.9-8.426,18.063-3.023,23.189c7.049,6.688,17.123,4.703,26.068,5.617
		c9.496,0.967,18.879,2.244,28.807,1.729c5.447-0.283,21.834-2.174,24.771-6.887c4.986-7.998-2.029-16.494-7.07-21.201
		c-7.219-6.736-12.34-6.729-22.166-7.186c-8.143-0.379-16.797-1.945-24.918-0.318c-4.854,0.971-21.188,1.299-23.621,5.057"/>
	<path fill="#414042" d="M124.749,753.982c6.5,6.256,0.404,17.273-6.467,20.58c-8.635,4.152-17.277,4.193-26.949,4.193
		c-9.809,0-19.764-0.115-29.385-0.59c-9.611-0.475-19.898,1.391-29.41,0.043c-7.016-0.996-15.756-5.186-17.814-12.723
		c-2.209-8.088,4.807-14.715,10.961-19.443c6.135-4.713,13.059-9.932,20.135-12.93c9.875-4.186,17.646-1.723,26.949,3.15
		c9.43,4.939,19.141,6.877,28.486,11.252c4.037,1.889,8.248,3.867,12.42,4.867c3.842,0.916,8.498,0.787,12.227,2.174"/>
	<path fill="#F1F2F2" stroke="#D1D3D4" stroke-miterlimit="10" d="M241.155,364.846c-11.549,1.297-19.385-4.292-29.398,4.16
		c-8.379,7.069-8.436,19.033-9.438,28.747c-1.4,13.58-0.795,27.645-1.445,41.297c-0.453,9.58-1.834,22.541,1.463,31.381
		c7.328,19.648,37.391,16.166,55.063,16.211c27.814,0.074,23.195-25.391,25.971-43.895c2.84-18.932-2.771-36.65-5.686-55.025
		c-1.393-8.788-1.406-15.857-10.541-20.264c-6.98-3.37-17.982-3.175-25.988-3.229"/>
	<path fill="#BE1E2D" d="M265.325,224.515c-4.957,0.017-7.352-1.174-6.785,3.904c0.324,2.896,2.664,6.753,3.299,9.922
		c1.35,6.741,2.67,15.419,5.662,21.269c1.092-5.118,4.656-35.131-2.752-34.519"/>
	<path d="M26.267,227.396c-3.816-0.499-8.768,3.143-11.961,4.898c-3.123,1.717-9.063,4.248-10.613,7.425
		c-2.117,4.332,2.055,8.686,3.877,12.435c2.543,5.233,2.783,10.544,4.311,16.133c1.939,7.102,3.48,15.067,7.156,21.555
		c1.1,1.937,3.271,3.514,3.953,5.584c0.746,2.282-0.896,4.943,1.006,6.801c3.344,3.27,9.098-0.523,12.271-1.88
		c3.877-1.66,7.879-2.993,11.693-4.61c3.293-1.396,8.658-3.043,9.578-6.689c0.969-3.839-1.908-9.033-2.637-12.682
		c-1.75-8.75-5.486-17.463-8.482-25.918c-2.195-6.193-3.887-12.914-6.41-19.029c-1.35-3.267-2.422-6.595-6.436-6.905
		c-2.971-0.229-7.447,1.131-9.352,3.457"/>
	<g>
		<path fill="#A7A9AC" d="M175.737,102.375c-5.961,0-11.367-0.164-16.42-3.168c-3.178-1.888-7.117-5.856-10.572-3.104
			c-3.199,2.546-5.266,6.611-8.674,9.224c-2.801,2.15-6.613,5.173-9.842,6.257c-4.156,1.396-8.918,1.594-13.256,1.16
			c-2.361-0.236-5.098-1.369-5.188,1.729c-0.051,1.752,1.545,3.382,2.232,4.962c3.734,8.583,6.846,14.488,14.475,20.458
			c6.918,5.414,11.701,13.053,21.029,14.051c8.828,0.945,17.68-1.4,24.549-6.561c9.66-7.256,21.279-16.847,20.102-30.03
			c-0.283-3.175-1.727-9.414-3.801-11.818c-2.764-3.201-8.773-2.211-12.395-2.81C177.187,102.596,176.47,102.518,175.737,102.375"/>
		<path fill="#414042" d="M204.063,121.384c-4.217-4.211-7.977-6.891-14.115-4.514c-4.934,1.911-8.656,4.617-11.139,9.603
			c-2.238,4.494-4.596,10.076-3.936,15.268c0.627,4.95,7.033,9.765,11.521,7.009c4.424-2.714,8.867-8.434,11.414-12.772
			c2.791-4.745,3.326-10.447,5.486-14.594"/>
		<path fill="#414042" d="M107.683,126.646c3.824-3.821,7.238-6.252,12.807-4.096c4.479,1.734,7.855,4.189,10.107,8.713
			c2.033,4.078,4.172,9.144,3.574,13.854c-0.572,4.493-6.383,8.862-10.459,6.361c-4.012-2.462-8.043-7.653-10.355-11.589
			c-2.533-4.306-3.02-9.48-4.979-13.243"/>
		<path d="M108.378,125.6c3.078,0.106,5.326-0.7,8.025,0.689c2.162,1.113,4.295,3.082,6.004,4.81c3.82,3.868,6.303,9.012,6.9,14.367
			c0.65,5.815-4.77,9.964-10.123,7.668c-3.559-1.526-8.025-5.659-10.195-8.619c-2.338-3.192-7.416-17.954-0.262-18.566"/>
		<path d="M203.296,120.232c-3.393,0.118-5.871-0.771-8.844,0.759c-2.385,1.227-4.734,3.396-6.615,5.301
			c-4.209,4.263-6.945,9.932-7.607,15.833c-0.717,6.409,5.258,10.98,11.158,8.45c3.922-1.681,8.844-6.236,11.234-9.498
			c2.578-3.518,8.174-19.786,0.289-20.461"/>
	</g>
	<path fill="#3C5899" d="M180.636,52.248c1.555-1.618,4.916-3.438,6.037-5.462c1.488-2.684-0.875-4.252-3.811-5.965
		c-5.375-3.139-13.363-3.722-19.512-4.32c-24.141-2.345-47.48-0.73-66.17,14.5c-3.859,3.147-7.109,8.166-9.793,12.406
		c-1.068,1.686-3.807,5.269-2.025,7.277c2.033,2.294,3.549-2.519,4.723-4.128c6.434-8.821,16.063-16.403,26.799-18.928
		c11.469-2.696,26.365-0.466,36.49,4.994c2.461,1.327,4.916,2.37,7.299,3.458c2.262,1.032,4.699,3.916,7.287,3.847
		c4.291-0.113,8.594-5.588,12.314-7.388L180.636,52.248z"/>
	<path fill="#E6E7E8" stroke="#BCBEC0" stroke-miterlimit="10" d="M222.692,299.412c-4.432-8.618-3.588-17.872-4.609-28.101
		c-1.357-13.604-7.287-26.839-8.641-40.585c-1.482-15.048-0.477-30.357,4.158-44.807c2.004-6.249,2.879-14.365,10.324-12.018
		c5.104,1.609,9.834,7.962,13.17,11.87c5.834,6.835,8.984,13.85,12.676,22.065c7.984,17.776,14.059,35.786,17.842,54.703
		c3.566,17.83,6.475,35.313,7.508,54.144c0.557,10.159,0.186,20.176,1.154,29.97c0.416,4.208,1.25,9.336,0.574,13.829
		c-0.889,5.902-2.787,5.751-8.645,6.785c-8.715,1.535-18.223,1.893-27.076,0.001c-4.592-0.981-9.699-1.195-13.986-3.168
		c-3.324-1.532-6.283-4.154-9.639-5.78c-6.506-3.155-15.889-9.583-16-18.131c-0.037-3.023,3.756-7.183,5.043-10.212
		c1.955-4.596,3.191-9.36,5.342-13.855c2.783-5.816,5.166-10.772,5.705-17.197c11.154-2.18,28.711,14.376,31.602,24.111"/>
	<g>
		<path fill="#FFFFFF" stroke="#BCBEC0" stroke-width="0.5" stroke-miterlimit="10" d="M260.913,454.092
			c-17.908,0-25.824-27.822-28.91-38.664c-0.518-1.822-1.207-3.711-1.938-5.717c-2.307-6.322-4.92-13.488-2.648-20.725
			c2.939-9.364,13.369-21.706,24.369-20.438c1.58,0.181,6.232-0.429,6.051,1.152c-0.182,1.58-3.336,1.262-4.92,1.093
			c-7.07-0.833-17.561,12.131-20.004,19.917c-1.686,5.375,0.475,11.298,2.564,17.027c0.734,2.012,1.492,4.094,2.068,6.113
			c2.598,9.139,10.496,36.959,25.58,34.277c12.309-2.174,20.771-21.977,26.371-35.08c0.922-2.156,1.791-4.193,2.592-5.941
			c9.289-20.33,10.434-36.479,3.604-50.824c-4.477-9.404-11.527-16.83-18.992-24.691c-4.303-4.531-8.752-9.217-12.652-14.311
			c-12.24-15.985-16.027-38.104-18.295-59.623c-0.982-9.326-1.467-22.981,1.813-35.064c3.332-12.278,8.945-13.071,11.996-12.45
			c5.025,1.02,6.193,7.334,6.965,11.512c0.152,0.824,0.297,1.604,0.436,2.137c0.4,1.541-0.525,3.112-2.066,3.511
			c-1.543,0.401-3.111-0.525-3.51-2.066c-0.189-0.729-0.354-1.606-0.523-2.534c-0.82-4.425-1.643-6.751-2.447-6.914
			c-1.68-0.345-3.867,3.074-5.289,8.313c-3.047,11.224-2.574,24.114-1.645,32.95c2.182,20.685,5.766,41.871,17.143,56.727
			c3.713,4.85,8.057,9.423,12.256,13.846c7.445,7.842,15.145,15.951,20.014,26.18c7.619,16.001,6.486,33.698-3.564,55.696
			c-0.771,1.686-1.627,3.688-2.535,5.811c-6.086,14.246-15.287,35.771-30.666,38.49C263.022,453.996,261.95,454.092,260.913,454.092
			z"/>
	</g>
	<path fill="none" stroke="#000000" stroke-width="5" stroke-linecap="round" stroke-linejoin="round" stroke-miterlimit="10" d="
		M227.3,176.12c0.936,8.683-4.217,18.014-6.336,26.502c-2.33,9.333-3.416,18.402-5.732,27.526
		c-4.604,18.137-9.287,36.234-13.873,54.298c-4.646,18.303-7.479,41.558-4.625,61.026c1.248,8.521,2.781,18.631,7.363,26.083
		c3.783,6.148,7.457,14.782,11.682,20.04"/>
	<path fill="#E1BB9B" stroke="#B6A18E" stroke-miterlimit="10" d="M202.671,291.059c0,0,0,0-0.863,4.321
		c-0.4,1.997-3.42-2.529-5.568-2.254c-1.039,4.411-2.398,7.895-2.643,12.624c-0.252,4.864-0.906,9.701-1.152,14.69
		c-0.242,4.883,0.508,8.111,3.387,12.171c2.105,2.973,5.867,9.342,9.576,5.625c1.982-1.987,2.26-4.978,3.227-7.501
		c1.811-4.724,4.074-9.369,5.928-14.113c1.627-4.162,3.18-7.222,3.24-11.736c0.053-3.955-3.068-7.274-4.977-10.594
		c-1.561-2.716-2.232-3.665-5.762-5.682c-2.088-1.44-3.385-1.728-3.385-1.728"/>
	<path fill="#E1BB9B" d="M199.935,337.149c-1.941-2.914-5.254-5.331-7.553-8.066c-2.754-3.273-3.719-7.208-5.059-11.234
		c-1.402-4.213-1.645-8.963-2.016-13.315c-0.266-3.122,1.941-8.459,3.328-11.235c1.195-2.39,5.369-7.264,7.555-8.289
		c1.254-0.588,2.566-1.087,2.463-0.646c-1.359,5.83-2.656,7.222-1.311,9.287c4.109,6.313,6.691,0.753,5.184,6.914
		c-1.936,7.923,2.533,27.948-1.359,35.159c-0.488,0.905-0.428,1.29-0.943,1.426"/>
	<path fill="#E1BB9B" stroke="#B6A18E" stroke-miterlimit="10" d="M198.206,335.708c-1.115-1.602-3.066-2.308-4.252-3.936
		c-1.258-1.729-2.293-3.549-3.865-5.072c-2.318-2.245-6.531-6.83-3.916-10.581"/>
	<path fill="#E1BB9B" stroke="#B6A18E" stroke-miterlimit="10" d="M190.14,320.441c-2.088-2.968-4.943-3.325-5.775-7.187
		c-0.607-2.819-1.143-9.062,1.166-10.962"/>
	<path fill="#E1BB9B" stroke="#B6A18E" stroke-miterlimit="10" d="M189.853,308.054c-1.146-3.182-4.486-4.622-4.963-8.354
		c-0.404-3.199,1.277-5.538,3.811-7.49"/>
	<path fill="#E1BB9B" stroke="#B6A18E" stroke-miterlimit="10" d="M190.14,298.548c-0.375-3.003-2.266-6.7-0.805-9.78
		c1.346-2.839,6.67-4.153,9.318-4.404"/>
	<path fill-rule="evenodd" clip-rule="evenodd" fill="#E1BB9B" stroke="#B6A18E" stroke-width="0.5" stroke-miterlimit="10" d="
		M36.983,282.896c3.805-3.556,8.295-8.071,11.908-12.291c0.834-0.806,0.846-1.83,1.518-2.789c0.371-0.529,0.178-0.912-0.436-1.154
		c-1.279-0.509-2.531-0.446-3.73,0.172c-0.715,0.37-1.404,0.818-2.043,1.313c-6.057,4.69-12.553,8.703-19.24,12.412
		c-1.32,0.732-2.813,1.369-4.291,1.573c-4.242,0.584-7.311-3.37-5.914-7.464c0.305-0.895,0.764-1.737,1.17-2.596
		c1.395-2.962,0.4-5.192-2.795-6.003c-0.979-0.249-2.043-0.253-3.061-0.199c-0.928,0.05-1.322,0.549-1.172,1.472
		c0.203,1.255,0.57,2.484,0.869,3.743c1.582-0.819,2.002-2.325,1.109-3.727c0.695,0.304,0.98,0.827,0.844,1.629
		c-0.189,1.111-0.719,2.038-1.52,2.837c-0.217,0.219-0.434,0.612-0.396,0.896c0.85,6.498-2.109,0.643,0.832,19.125
		c2.939,18.483,16.889,13.167,16.889,13.167c6.363-1.433,12.393-3.843,17.883-7.42c1.604-1.043,3.037-2.372,4.443-3.682
		c0.879-0.818,1.432-1.905,1.533-3.433c-4.643,2.858-9.123,5.617-13.602,8.375c-0.047-0.065-0.094-0.131-0.141-0.196
		c0.289-0.229,0.574-0.466,0.867-0.687c4.805-3.627,9.631-7.224,14.396-10.898c1.008-0.775,1.885-1.763,2.67-2.771
		c1.133-1.45,1.543-3.075,0.574-4.955c-6.346,4.65-12.121,10.003-19.26,13.403c2.576-2.193,5.15-4.392,7.73-6.58
		c3.053-2.587,6.146-5.129,9.156-7.769c1.252-1.098,2.447-2.307,3.465-3.623c1.127-1.459,1.289-3.131,0.232-4.776
		c-0.533-0.828-1.127-1.073-2.08-0.794c-1.998,0.585-5.848,4.566-7.463,5.818L36.983,282.896z"/>
</g>
<path fill="#FFFFFF" d="M149.136,283.994c0,0-0.121,0.033-0.34,0.089l5.207-6.616l-8.658-5.279c0.074-0.416,0.125-0.839,0.145-1.268
	c0.129-3.068-1.291-5.743-3.623-7.458c1.533-2.439,4.641-6.14,9.658-6.664c0.807-0.084,1.451-0.814,1.436-1.629
	c-0.012-0.817-0.684-1.426-1.484-1.325c-6.422,0.67-10.264,5.288-12.113,8.292c-1.324-0.483-2.799-0.724-4.367-0.655
	c-1.566,0.069-3.066,0.44-4.438,1.04c-1.602-2.85-5.066-7.146-11.453-7.253c-0.807-0.033-1.523,0.638-1.604,1.46
	c-0.082,0.819,0.5,1.495,1.303,1.508c5.029,0.084,7.82,3.511,9.139,5.829c-2.492,1.925-4.148,4.741-4.277,7.814
	c-0.023,0.519,0,1.024,0.063,1.518l-8.258,5.506l4.467,6.726c-0.313-0.054-0.492-0.088-0.492-0.088s-3.998,2.939-11.076,7.628
	c-0.914,21.543,16.27,39.938,23.631,39.334c7.357-0.603,25.145-17.905,27.055-41.563
	C152.454,286.982,149.136,283.994,149.136,283.994z"/>
</svg>
